DataViz with R
…
.footnote[Exercises from ***R for Data Science***]
---

# Arranging lines 

`arrange()` works similarly to `filter()` except that instead of selecting rows, it changes their order.

```r
arrange(flights, year, month, day)
```

```
## # A tibble: 336,776 x 19
##     year month   day dep_time sched_dep_time dep_delay arr_time sched_arr_time arr_delay
##    <int> <int> <int>    <int>          <int>     <dbl>    <int>          <int>     <dbl>
##  1  2013     1     1      517            515         2      830            819        11
##  2  2013     1     1      533            529         4      850            830        20
##  3  2013     1     1      542            540         2      923            850        33
##  4  2013     1     1      544            545        -1     1004           1022       -18
##  5  2013     1     1      554            600        -6      812            837       -25
##  6  2013     1     1      554            558        -4      740            728        12
##  7  2013     1     1      555            600        -5      913            854        19
##  8  2013     1     1      557            600        -3      709            723       -14
##  9  2013     1     1      557            600        -3      838            846        -8
## 10  2013     1     1      558            600        -2      753            745         8
## # … with 336,766 more rows, and 10 more variables: carrier <chr>, flight <int>,
## #   tailnum <chr>, origin <chr>, dest <chr>, air_time <dbl>, distance <dbl>, hour <dbl>,
## #   minute <dbl>, time_hour <dttm>
```

---

# Arranging lines

```r
arrange(flights, desc(dep_delay))
```

```
## # A tibble: 336,776 x 19
##     year month   day dep_time sched_dep_time dep_delay arr_time sched_arr_time arr_delay
##    <int> <int> <int>    <int>          <int>     <dbl>    <int>          <int>     <dbl>
##  1  2013     1     9      641            900      1301     1242           1530      1272
##  2  2013     6    15     1432           1935      1137     1607           2120      1127
##  3  2013     1    10     1121           1635      1126     1239           1810      1109
##  4  2013     9    20     1139           1845      1014     1457           2210      1007
##  5  2013     7    22      845           1600      1005     1044           1815       989
##  6  2013     4    10     1100           1900       960     1342           2211       931
##  7  2013     3    17     2321            810       911      135           1020       915
##  8  2013     6    27      959           1900       899     1236           2226       850
##  9  2013     7    22     2257            759       898      121           1026       895
## 10  2013    12     5      756           1700       896     1058           2020       878
## # … with 336,766 more rows, and 10 more variables: carrier <chr>, flight <int>,
## #   tailnum <chr>, origin <chr>, dest <chr>, air_time <dbl>, distance <dbl>, hour <dbl>,
## #   minute <dbl>, time_hour <dttm>
```

In case of `NA`s, these will always go in the end of the data.

---

# Selecting columns

`select()` is very useful if your data has many columns.

```r
select(flights, year, month, day)
```

```
## # A tibble: 336,776 x 3
##     year month   day
##    <int> <int> <int>
##  1  2013     1     1
##  2  2013     1     1
##  3  2013     1     1
##  4  2013     1     1
##  5  2013     1     1
##  6  2013     1     1
##  7  2013     1     1
##  8  2013     1     1
##  9  2013     1     1
## 10  2013     1     1
## # … with 336,766 more rows
```
…
```r
#First, we select columns and store them in the `flights_sml` object
flights_sml <- select(flights, 
  year:day, ends_with("delay"), 
  distance, air_time)
#Then we use the new object and create new variables from the existent ones.
mutate(flights_sml,
  gain = dep_delay - arr_delay,
  speed = distance / air_time * 60
)
```

```
## # A tibble: 336,776 x 9
##     year month   day dep_delay arr_delay distance air_time  gain speed
##    <int> <int> <int>     <dbl>     <dbl>    <dbl>    <dbl> <dbl> <dbl>
##  1  2013     1     1         2        11     1400      227    -9  370.
##  2  2013     1     1         4        20     1416      227   -16  374.
##  3  2013     1     1         2        33     1089      160   -31  408.
##  4  2013     1     1        -1       -18     1576      183    17  517.
##  5  2013     1     1        -6       -25      762      116    19  394.
##  6  2013     1     1        -4        12      719      150   -16  288.
##  7  2013     1     1        -5        19     1065      158   -24  404.
##  8  2013     1     1        -3       -14      229       53    11  259.
##  9  2013     1     1        -3        -8      944      140     5  405.
## 10  2013     1     1        -2         8      733      138   -10  319.
## # … with 336,766 more rows
```
…
`summarise()` is also very useful for taking group means and standard deviations

```r
by_day <- group_by(flights, year, month, day)
summarise(by_day, delay = mean(dep_delay, na.rm = TRUE))
```

```
## # A tibble: 365 x 4
## # Groups:   year, month [12]
##     year month   day delay
##    <int> <int> <int> <dbl>
##  1  2013     1     1 11.5 
##  2  2013     1     2 13.9 
##  3  2013     1     3 11.0 
##  4  2013     1     4  8.95
##  5  2013     1     5  5.73
##  6  2013     1     6  7.15
##  7  2013     1     7  5.42
##  8  2013     1     8  2.55
##  9  2013     1     9  2.28
## 10  2013     1    10  2.84
## # … with 355 more rows
```
…
#Combine everything

```r
by_dest <- group_by(flights, dest)
delay <- summarise(by_dest,
  count = n(), # n() counts the number of lines for each group.
  dist = mean(distance, na.rm = TRUE),
  delay = mean(arr_delay, na.rm = TRUE)
)
filter(delay, count > 20, dest != "HNL")
```

```
## # A tibble: 96 x 4
##    dest  count  dist delay
##    <chr> <int> <dbl> <dbl>
##  1 ABQ     254 1826   4.38
##  2 ACK     265  199   4.85
##  3 ALB     439  143  14.4 
##  4 ATL   17215  757. 11.3 
##  5 AUS    2439 1514.  6.02
##  6 AVL     275  584.  8.00
##  7 BDL     443  116   7.05
##  8 BGR     375  378   8.03
##  9 BHM     297  866. 16.9 
## 10 BNA    6333  758. 11.8 
## # … with 86 more rows
```
…
